{
    "defaultEnv": {"ENV": "NODE_ENV"},
    "development": {
        "driver": "mysql",
        "user": {"ENV": "MYSQL_USER"},
        "password": {"ENV": "MYSQL_PASSWORD"},
        "host": {"ENV": "MYSQL_HOST"},
        "database": {"ENV": "MYSQL_DATABASE"}
    },

    "test": {
        "driver": "mysql",
        "user": {"ENV": "MYSQL_USER"},
        "password": {"ENV": "MYSQL_PASSWORD"},
        "database": {"ENV": "MYSQL_DATABASE"}
    },

    "production": {
      "driver": "mysql",
      "user": {"ENV": "MYSQL_USER"},
      "password": {"ENV": "MYSQL_PASSWORD"},
      "database": {"ENV": "MYSQL_DATABASE"}
    },

    "mongo": {
        "driver": "mongodb",
        "database": "my_db",
        "host": "localhost"
    }
  }
